{
    "prefix": "!",
    "commands": [
        {
            "name": "help",
            "usage": "",
            "description": "Posts this message"
        }, {
            "name": "squadify",
            "usage": "[numSquads]",
            "description": "Create squads based off of users in the current voice channel"
        }, {
            "name": "quack",
            "usage": "",
            "description": "Joins a voice channel and quacks",
            "quacks": [
                "./assets/quacks/duck.wav",
                "./assets/quacks/duck_quack1.mp3",
                "./assets/quacks/duck-quack3.wav",
                "./assets/quacks/mallard.mp3",
                "./assets/quacks/pissed_off_duck.mp3",
                "./assets/quacks/QUACK.WAV",
                "./assets/quacks/quack_quack.mp3",
                "./assets/quacks/honk-sound.mp3"
            ]
        }, {
            "name": "horny",
            "usage": "",
            "description": "Who's a horny boi?",
            "path": "./assets/sound-bites/am-I-horny-fuck-yeah.mp3"
        }, {
            "name": "hellyeah",
            "usage": "",
            "description": "Joins a channel and gives a hearty OH HELL YEAH DUDE",
            "path": "./assets/jingles/tejas.mp3"
        }, {
            "name": "viper",
            "usage": "",
            "description": "ha haaaaaaa",
            "path": "./assets/sound-bites/Viper.mp3"
        }, {
            "name": "callout",
            "usage": "",
            "description": "Demonstrates the mother of all callouts",
            "path": "./assets/sound-bites/callout.mp3"
        }, {
            "name": "story",
            "usage": "[voice]",
            "description": "Have duck bot tell you a lovely story. Use the voice parameter to select a voice, if none provided a random one is selected.\n\tCurrent voices are :\n\t\tGlados, Scout, Soldier, Demoman, Heavy, Engineer, Sniper, Spy, SentryTurret, Spongebob\n\tThis feature is powered by https://15.ai",
            "depth": 50
        }, {
            "name": "rat",
            "usage": "",
            "description": "Rats gotta do what a rats gotta do",
            "path": "./assets/sound-bites/rat.mp3"
        }, {
            "name": "bread",
            "usage": "",
            "description": "Feed DuckBot some tasty bread when he is good",
            "reactions": [
                "https://gph.is/2SEC7l6",
                "https://media.giphy.com/media/tkYaChn7aZClW/giphy.gif",
                "https://media.giphy.com/media/FvEWj04Kooffy/giphy.gif",
                "https://media.giphy.com/media/Xv09lByZqcnNC/giphy.gif",
                "https://media.giphy.com/media/n2vbrlgiT2QU0/giphy.gif",
                "https://media.giphy.com/media/mFjHIKxnZpwBy/giphy.gif",
                "https://media.giphy.com/media/L4NSQPFj0mbDYiCJIm/giphy.gif",
                "https://gfycat.com/recklesstenderflies"
            ],
            "soundBites": [
                "./assets/sound-bites/YES.mp3",
                "./assets/sound-bites/mmmMMM.mp3",
                "./assets/sound-bites/mmmMmmSoGood.mp3",
                "./assets/sound-bites/MMMSoGoodAndTasty.mp3",
                "./assets/sound-bites/MMMYEAHHAAAHH.mp3",
                "./assets/sound-bites/ohGodItsSoGood.mp3"
            ]
        }, {
            "name": "joke",
            "usage": "",
            "description": "Duck Bot tells the greatest joke of all time",
            "subjects": ["a horse", "a priest", "a hedgehog", "a mathematician", "a logician", "a blind man", "some ducks"],
            "places": ["a bar", "an axe throwing arena", "a shoe shop", "a doctors office", "a graveyard", "a large hadron collider", "a bakery"]
        }
    ],
    "jingleProbability" : 5,
    "jingles": {
        "195707053300383744": ["./assets/jingles/alex.mp3"],
        "244926593221394433": ["./assets/jingles/tyler.mp3", "./assets/jingles/tyler2.mp3"],
        "244922582720053249": ["./assets/jingles/stephen.mp3"],
        "179125203077431297": ["./assets/jingles/tejas.mp3"],
        "92790556899430400": ["./assets/jingles/lukek.mp3"],
        "342839502173241347": ["./assets/jingles/stephenT.mp3"],
        "310149173376974858": ["./assets/jingles/nick.mp3"],
        "278169986323972116": ["./assets/jingles/jenni.mp3"],
        "133051953730158592": ["./assets/jingles/chris.mp3"]
    },
    "markov": {
        "probability": 5,
        "depth": 15
    }
}